// Jest Snapshot v1, https://goo.gl/fbAQLP

exports[`App component render RootNavigator correctly 1`] = `
<RNCSafeAreaProvider
  onInsetsChange={[Function]}
  style={
    Array [
      Object {
        "flex": 1,
      },
      undefined,
    ]
  }
>
  <RNSScreenNavigationContainer
    style={
      Object {
        "flex": 1,
        "overflow": "hidden",
      }
    }
  >
    <RNSScreen
      activityState={2}
      collapsable={false}
      forwardedRef={[Function]}
      style={
        Object {
          "bottom": 0,
          "left": 0,
          "position": "absolute",
          "right": 0,
          "top": 0,
          "zIndex": 0,
        }
      }
    >
      <View
        accessibilityElementsHidden={false}
        importantForAccessibility="auto"
        style={
          Array [
            Object {
              "backgroundColor": "rgb(242, 242, 242)",
              "flex": 1,
            },
            Array [
              Object {
                "flex": 1,
                "flexDirection": "column-reverse",
              },
              undefined,
            ],
          ]
        }
      >
        <View
          style={
            Object {
              "flex": 1,
            }
          }
        >
          <View
            style={
              Array [
                Object {
                  "flex": 1,
                },
                undefined,
              ]
            }
          >
            <RNSScreenStack
              style={
                Object {
                  "flex": 1,
                }
              }
            >
              <RNSScreen
                collapsable={false}
                forwardedRef={[Function]}
                onAppear={[Function]}
                onDisappear={[Function]}
                onDismissed={[Function]}
                onTransitionProgress={[Function]}
                onWillDisappear={[Function]}
                replaceAnimation="push"
                stackPresentation="push"
                style={
                  Object {
                    "bottom": 0,
                    "left": 0,
                    "position": "absolute",
                    "right": 0,
                    "top": 0,
                  }
                }
              >
                <RNSScreenStackHeaderConfig
                  backButtonInCustomView={false}
                  backgroundColor="rgb(255, 255, 255)"
                  color="rgb(0, 122, 255)"
                  direction="ltr"
                  disableBackButtonMenu={false}
                  hidden={false}
                  hideBackButton={false}
                  largeTitleHideShadow={false}
                  title="Discover"
                  titleColor="rgb(28, 28, 30)"
                  topInsetEnabled={false}
                  translucent={false}
                />
                <View
                  style={
                    Array [
                      Object {
                        "flex": 1,
                      },
                      Object {
                        "backgroundColor": "rgb(242, 242, 242)",
                      },
                      undefined,
                    ]
                  }
                >
                  <View
                    style={
                      Object {
                        "flex": 1,
                        "paddingTop": 10,
                      }
                    }
                  >
                    <RCTScrollView
                      data={
                        Array [
                          Object {
                            "birth_year": "19BBY",
                            "id": 1,
                            "name": "Luke Skywalker",
                          },
                          Object {
                            "birth_year": "112BBY",
                            "id": 2,
                            "name": "C-3PO",
                          },
                          Object {
                            "birth_year": "33BBY",
                            "id": 3,
                            "name": "R2-D2",
                          },
                          Object {
                            "birth_year": "41.9BBY",
                            "id": 4,
                            "name": "Darth Vader",
                          },
                          Object {
                            "birth_year": "19BBY",
                            "id": 5,
                            "name": "Leia Organa",
                          },
                        ]
                      }
                      getItem={[Function]}
                      getItemCount={[Function]}
                      keyExtractor={[Function]}
                      onContentSizeChange={[Function]}
                      onLayout={[Function]}
                      onMomentumScrollBegin={[Function]}
                      onMomentumScrollEnd={[Function]}
                      onScroll={[Function]}
                      onScrollBeginDrag={[Function]}
                      onScrollEndDrag={[Function]}
                      removeClippedSubviews={false}
                      renderItem={[Function]}
                      scrollEventThrottle={50}
                      stickyHeaderIndices={Array []}
                      viewabilityConfigCallbackPairs={Array []}
                    >
                      <View>
                        <View
                          onLayout={[Function]}
                          style={null}
                        >
                          <View
                            accessible={true}
                            collapsable={false}
                            focusable={true}
                            onClick={[Function]}
                            onResponderGrant={[Function]}
                            onResponderMove={[Function]}
                            onResponderRelease={[Function]}
                            onResponderTerminate={[Function]}
                            onResponderTerminationRequest={[Function]}
                            onStartShouldSetResponder={[Function]}
                            style={
                              Object {
                                "opacity": 1,
                              }
                            }
                          >
                            <View>
                              <Text
                                style={
                                  Object {
                                    "fontSize": 18,
                                    "paddingHorizontal": 12,
                                    "paddingVertical": 12,
                                  }
                                }
                              >
                                Luke Skywalker
                              </Text>
                              <View
                                style={
                                  Object {
                                    "borderColor": "#ccc",
                                    "borderWidth": 0.5,
                                  }
                                }
                              />
                            </View>
                          </View>
                        </View>
                        <View
                          onLayout={[Function]}
                          style={null}
                        >
                          <View
                            accessible={true}
                            collapsable={false}
                            focusable={true}
                            onClick={[Function]}
                            onResponderGrant={[Function]}
                            onResponderMove={[Function]}
                            onResponderRelease={[Function]}
                            onResponderTerminate={[Function]}
                            onResponderTerminationRequest={[Function]}
                            onStartShouldSetResponder={[Function]}
                            style={
                              Object {
                                "opacity": 1,
                              }
                            }
                          >
                            <View>
                              <Text
                                style={
                                  Object {
                                    "fontSize": 18,
                                    "paddingHorizontal": 12,
                                    "paddingVertical": 12,
                                  }
                                }
                              >
                                C-3PO
                              </Text>
                              <View
                                style={
                                  Object {
                                    "borderColor": "#ccc",
                                    "borderWidth": 0.5,
                                  }
                                }
                              />
                            </View>
                          </View>
                        </View>
                        <View
                          onLayout={[Function]}
                          style={null}
                        >
                          <View
                            accessible={true}
                            collapsable={false}
                            focusable={true}
                            onClick={[Function]}
                            onResponderGrant={[Function]}
                            onResponderMove={[Function]}
                            onResponderRelease={[Function]}
                            onResponderTerminate={[Function]}
                            onResponderTerminationRequest={[Function]}
                            onStartShouldSetResponder={[Function]}
                            style={
                              Object {
                                "opacity": 1,
                              }
                            }
                          >
                            <View>
                              <Text
                                style={
                                  Object {
                                    "fontSize": 18,
                                    "paddingHorizontal": 12,
                                    "paddingVertical": 12,
                                  }
                                }
                              >
                                R2-D2
                              </Text>
                              <View
                                style={
                                  Object {
                                    "borderColor": "#ccc",
                                    "borderWidth": 0.5,
                                  }
                                }
                              />
                            </View>
                          </View>
                        </View>
                        <View
                          onLayout={[Function]}
                          style={null}
                        >
                          <View
                            accessible={true}
                            collapsable={false}
                            focusable={true}
                            onClick={[Function]}
                            onResponderGrant={[Function]}
                            onResponderMove={[Function]}
                            onResponderRelease={[Function]}
                            onResponderTerminate={[Function]}
                            onResponderTerminationRequest={[Function]}
                            onStartShouldSetResponder={[Function]}
                            style={
                              Object {
                                "opacity": 1,
                              }
                            }
                          >
                            <View>
                              <Text
                                style={
                                  Object {
                                    "fontSize": 18,
                                    "paddingHorizontal": 12,
                                    "paddingVertical": 12,
                                  }
                                }
                              >
                                Darth Vader
                              </Text>
                              <View
                                style={
                                  Object {
                                    "borderColor": "#ccc",
                                    "borderWidth": 0.5,
                                  }
                                }
                              />
                            </View>
                          </View>
                        </View>
                        <View
                          onLayout={[Function]}
                          style={null}
                        >
                          <View
                            accessible={true}
                            collapsable={false}
                            focusable={true}
                            onClick={[Function]}
                            onResponderGrant={[Function]}
                            onResponderMove={[Function]}
                            onResponderRelease={[Function]}
                            onResponderTerminate={[Function]}
                            onResponderTerminationRequest={[Function]}
                            onStartShouldSetResponder={[Function]}
                            style={
                              Object {
                                "opacity": 1,
                              }
                            }
                          >
                            <View>
                              <Text
                                style={
                                  Object {
                                    "fontSize": 18,
                                    "paddingHorizontal": 12,
                                    "paddingVertical": 12,
                                  }
                                }
                              >
                                Leia Organa
                              </Text>
                              <View
                                style={
                                  Object {
                                    "borderColor": "#ccc",
                                    "borderWidth": 0.5,
                                  }
                                }
                              />
                            </View>
                          </View>
                        </View>
                      </View>
                    </RCTScrollView>
                  </View>
                </View>
              </RNSScreen>
            </RNSScreenStack>
          </View>
        </View>
      </View>
    </RNSScreen>
  </RNSScreenNavigationContainer>
  <View
    collapsable={false}
    onLayout={[Function]}
    pointerEvents="auto"
    style={
      Object {
        "backgroundColor": "rgb(255, 255, 255)",
        "borderTopColor": "rgb(216, 216, 216)",
        "borderTopWidth": 0.5,
        "bottom": 0,
        "elevation": 8,
        "height": 49,
        "left": 0,
        "paddingBottom": 0,
        "paddingHorizontal": 0,
        "position": null,
        "right": 0,
        "transform": Array [
          Object {
            "translateY": 0,
          },
        ],
      }
    }
  >
    <View
      pointerEvents="none"
      style={
        Object {
          "bottom": 0,
          "left": 0,
          "position": "absolute",
          "right": 0,
          "top": 0,
        }
      }
    />
    <View
      accessibilityRole="tablist"
      style={
        Object {
          "flex": 1,
          "flexDirection": "row",
        }
      }
    >
      <View
        accessibilityLabel="Discover, tab, 1 of 4"
        accessibilityRole="button"
        accessibilityState={
          Object {
            "selected": true,
          }
        }
        accessibilityStates={
          Array [
            "selected",
          ]
        }
        accessible={true}
        collapsable={false}
        focusable={true}
        onBlur={[Function]}
        onClick={[Function]}
        onFocus={[Function]}
        onResponderGrant={[Function]}
        onResponderMove={[Function]}
        onResponderRelease={[Function]}
        onResponderTerminate={[Function]}
        onResponderTerminationRequest={[Function]}
        onStartShouldSetResponder={[Function]}
        style={
          Array [
            Object {
              "alignItems": "center",
              "flex": 1,
            },
            Object {
              "backgroundColor": "transparent",
            },
            Object {
              "flexDirection": "column",
              "justifyContent": "flex-end",
            },
            undefined,
          ]
        }
      >
        <View
          style={
            Array [
              Object {
                "flex": 1,
              },
              undefined,
            ]
          }
        >
          <View
            style={
              Array [
                Object {
                  "alignItems": "center",
                  "alignSelf": "center",
                  "height": "100%",
                  "justifyContent": "center",
                  "minWidth": 25,
                  "position": "absolute",
                  "width": "100%",
                },
                Object {
                  "opacity": 1,
                },
              ]
            }
          >
            <Text
              style={
                Array [
                  Object {
                    "backgroundColor": "transparent",
                  },
                  Object {
                    "color": "rgb(0, 122, 255)",
                    "fontSize": 25,
                  },
                  undefined,
                ]
              }
            >
              ⏷
            </Text>
          </View>
          <View
            style={
              Array [
                Object {
                  "alignItems": "center",
                  "alignSelf": "center",
                  "height": "100%",
                  "justifyContent": "center",
                  "minWidth": 25,
                  "position": "absolute",
                  "width": "100%",
                },
                Object {
                  "opacity": 0,
                },
              ]
            }
          >
            <Text
              style={
                Array [
                  Object {
                    "backgroundColor": "transparent",
                  },
                  Object {
                    "color": "#8E8E8F",
                    "fontSize": 25,
                  },
                  undefined,
                ]
              }
            >
              ⏷
            </Text>
          </View>
        </View>
        <Text
          numberOfLines={1}
          style={
            Array [
              Object {
                "backgroundColor": "transparent",
                "textAlign": "center",
              },
              Object {
                "color": "rgb(0, 122, 255)",
              },
              Object {
                "fontSize": 10,
              },
              undefined,
            ]
          }
        >
          Discover
        </Text>
      </View>
      <View
        accessibilityLabel="Shop, tab, 2 of 4"
        accessibilityRole="button"
        accessibilityState={
          Object {
            "selected": false,
          }
        }
        accessibilityStates={Array []}
        accessible={true}
        collapsable={false}
        focusable={true}
        onBlur={[Function]}
        onClick={[Function]}
        onFocus={[Function]}
        onResponderGrant={[Function]}
        onResponderMove={[Function]}
        onResponderRelease={[Function]}
        onResponderTerminate={[Function]}
        onResponderTerminationRequest={[Function]}
        onStartShouldSetResponder={[Function]}
        style={
          Array [
            Object {
              "alignItems": "center",
              "flex": 1,
            },
            Object {
              "backgroundColor": "transparent",
            },
            Object {
              "flexDirection": "column",
              "justifyContent": "flex-end",
            },
            undefined,
          ]
        }
      >
        <View
          style={
            Array [
              Object {
                "flex": 1,
              },
              undefined,
            ]
          }
        >
          <View
            style={
              Array [
                Object {
                  "alignItems": "center",
                  "alignSelf": "center",
                  "height": "100%",
                  "justifyContent": "center",
                  "minWidth": 25,
                  "position": "absolute",
                  "width": "100%",
                },
                Object {
                  "opacity": 0,
                },
              ]
            }
          >
            <Text
              style={
                Array [
                  Object {
                    "backgroundColor": "transparent",
                  },
                  Object {
                    "color": "rgb(0, 122, 255)",
                    "fontSize": 25,
                  },
                  undefined,
                ]
              }
            >
              ⏷
            </Text>
          </View>
          <View
            style={
              Array [
                Object {
                  "alignItems": "center",
                  "alignSelf": "center",
                  "height": "100%",
                  "justifyContent": "center",
                  "minWidth": 25,
                  "position": "absolute",
                  "width": "100%",
                },
                Object {
                  "opacity": 1,
                },
              ]
            }
          >
            <Text
              style={
                Array [
                  Object {
                    "backgroundColor": "transparent",
                  },
                  Object {
                    "color": "#8E8E8F",
                    "fontSize": 25,
                  },
                  undefined,
                ]
              }
            >
              ⏷
            </Text>
          </View>
        </View>
        <Text
          numberOfLines={1}
          style={
            Array [
              Object {
                "backgroundColor": "transparent",
                "textAlign": "center",
              },
              Object {
                "color": "#8E8E8F",
              },
              Object {
                "fontSize": 10,
              },
              undefined,
            ]
          }
        >
          Shop
        </Text>
      </View>
      <View
        accessibilityLabel="Bag, tab, 3 of 4"
        accessibilityRole="button"
        accessibilityState={
          Object {
            "selected": false,
          }
        }
        accessibilityStates={Array []}
        accessible={true}
        collapsable={false}
        focusable={true}
        onBlur={[Function]}
        onClick={[Function]}
        onFocus={[Function]}
        onResponderGrant={[Function]}
        onResponderMove={[Function]}
        onResponderRelease={[Function]}
        onResponderTerminate={[Function]}
        onResponderTerminationRequest={[Function]}
        onStartShouldSetResponder={[Function]}
        style={
          Array [
            Object {
              "alignItems": "center",
              "flex": 1,
            },
            Object {
              "backgroundColor": "transparent",
            },
            Object {
              "flexDirection": "column",
              "justifyContent": "flex-end",
            },
            undefined,
          ]
        }
      >
        <View
          style={
            Array [
              Object {
                "flex": 1,
              },
              undefined,
            ]
          }
        >
          <View
            style={
              Array [
                Object {
                  "alignItems": "center",
                  "alignSelf": "center",
                  "height": "100%",
                  "justifyContent": "center",
                  "minWidth": 25,
                  "position": "absolute",
                  "width": "100%",
                },
                Object {
                  "opacity": 0,
                },
              ]
            }
          >
            <Text
              style={
                Array [
                  Object {
                    "backgroundColor": "transparent",
                  },
                  Object {
                    "color": "rgb(0, 122, 255)",
                    "fontSize": 25,
                  },
                  undefined,
                ]
              }
            >
              ⏷
            </Text>
          </View>
          <View
            style={
              Array [
                Object {
                  "alignItems": "center",
                  "alignSelf": "center",
                  "height": "100%",
                  "justifyContent": "center",
                  "minWidth": 25,
                  "position": "absolute",
                  "width": "100%",
                },
                Object {
                  "opacity": 1,
                },
              ]
            }
          >
            <Text
              style={
                Array [
                  Object {
                    "backgroundColor": "transparent",
                  },
                  Object {
                    "color": "#8E8E8F",
                    "fontSize": 25,
                  },
                  undefined,
                ]
              }
            >
              ⏷
            </Text>
          </View>
        </View>
        <Text
          numberOfLines={1}
          style={
            Array [
              Object {
                "backgroundColor": "transparent",
                "textAlign": "center",
              },
              Object {
                "color": "#8E8E8F",
              },
              Object {
                "fontSize": 10,
              },
              undefined,
            ]
          }
        >
          Bag
        </Text>
      </View>
      <View
        accessibilityLabel="MyAccount, tab, 4 of 4"
        accessibilityRole="button"
        accessibilityState={
          Object {
            "selected": false,
          }
        }
        accessibilityStates={Array []}
        accessible={true}
        collapsable={false}
        focusable={true}
        onBlur={[Function]}
        onClick={[Function]}
        onFocus={[Function]}
        onResponderGrant={[Function]}
        onResponderMove={[Function]}
        onResponderRelease={[Function]}
        onResponderTerminate={[Function]}
        onResponderTerminationRequest={[Function]}
        onStartShouldSetResponder={[Function]}
        style={
          Array [
            Object {
              "alignItems": "center",
              "flex": 1,
            },
            Object {
              "backgroundColor": "transparent",
            },
            Object {
              "flexDirection": "column",
              "justifyContent": "flex-end",
            },
            undefined,
          ]
        }
      >
        <View
          style={
            Array [
              Object {
                "flex": 1,
              },
              undefined,
            ]
          }
        >
          <View
            style={
              Array [
                Object {
                  "alignItems": "center",
                  "alignSelf": "center",
                  "height": "100%",
                  "justifyContent": "center",
                  "minWidth": 25,
                  "position": "absolute",
                  "width": "100%",
                },
                Object {
                  "opacity": 0,
                },
              ]
            }
          >
            <Text
              style={
                Array [
                  Object {
                    "backgroundColor": "transparent",
                  },
                  Object {
                    "color": "rgb(0, 122, 255)",
                    "fontSize": 25,
                  },
                  undefined,
                ]
              }
            >
              ⏷
            </Text>
          </View>
          <View
            style={
              Array [
                Object {
                  "alignItems": "center",
                  "alignSelf": "center",
                  "height": "100%",
                  "justifyContent": "center",
                  "minWidth": 25,
                  "position": "absolute",
                  "width": "100%",
                },
                Object {
                  "opacity": 1,
                },
              ]
            }
          >
            <Text
              style={
                Array [
                  Object {
                    "backgroundColor": "transparent",
                  },
                  Object {
                    "color": "#8E8E8F",
                    "fontSize": 25,
                  },
                  undefined,
                ]
              }
            >
              ⏷
            </Text>
          </View>
        </View>
        <Text
          numberOfLines={1}
          style={
            Array [
              Object {
                "backgroundColor": "transparent",
                "textAlign": "center",
              },
              Object {
                "color": "#8E8E8F",
              },
              Object {
                "fontSize": 10,
              },
              undefined,
            ]
          }
        >
          MyAccount
        </Text>
      </View>
    </View>
  </View>
</RNCSafeAreaProvider>
`;

exports[`App component renders APP component correctly 1`] = `
<RNCSafeAreaProvider
  onInsetsChange={[Function]}
  style={
    Array [
      Object {
        "flex": 1,
      },
      undefined,
    ]
  }
>
  <RNSScreenNavigationContainer
    style={
      Object {
        "flex": 1,
        "overflow": "hidden",
      }
    }
  >
    <RNSScreen
      activityState={2}
      collapsable={false}
      forwardedRef={[Function]}
      style={
        Object {
          "bottom": 0,
          "left": 0,
          "position": "absolute",
          "right": 0,
          "top": 0,
          "zIndex": 0,
        }
      }
    >
      <View
        accessibilityElementsHidden={false}
        importantForAccessibility="auto"
        style={
          Array [
            Object {
              "backgroundColor": "rgb(242, 242, 242)",
              "flex": 1,
            },
            Array [
              Object {
                "flex": 1,
                "flexDirection": "column-reverse",
              },
              undefined,
            ],
          ]
        }
      >
        <View
          style={
            Object {
              "flex": 1,
            }
          }
        >
          <View
            style={
              Array [
                Object {
                  "flex": 1,
                },
                undefined,
              ]
            }
          >
            <RNSScreenStack
              style={
                Object {
                  "flex": 1,
                }
              }
            >
              <RNSScreen
                collapsable={false}
                forwardedRef={[Function]}
                onAppear={[Function]}
                onDisappear={[Function]}
                onDismissed={[Function]}
                onTransitionProgress={[Function]}
                onWillDisappear={[Function]}
                replaceAnimation="push"
                stackPresentation="push"
                style={
                  Object {
                    "bottom": 0,
                    "left": 0,
                    "position": "absolute",
                    "right": 0,
                    "top": 0,
                  }
                }
              >
                <RNSScreenStackHeaderConfig
                  backButtonInCustomView={false}
                  backgroundColor="rgb(255, 255, 255)"
                  color="rgb(0, 122, 255)"
                  direction="ltr"
                  disableBackButtonMenu={false}
                  hidden={false}
                  hideBackButton={false}
                  largeTitleHideShadow={false}
                  title="Discover"
                  titleColor="rgb(28, 28, 30)"
                  topInsetEnabled={false}
                  translucent={false}
                />
                <View
                  style={
                    Array [
                      Object {
                        "flex": 1,
                      },
                      Object {
                        "backgroundColor": "rgb(242, 242, 242)",
                      },
                      undefined,
                    ]
                  }
                >
                  <View
                    style={
                      Object {
                        "flex": 1,
                        "paddingTop": 10,
                      }
                    }
                  >
                    <RCTScrollView
                      data={
                        Array [
                          Object {
                            "birth_year": "19BBY",
                            "id": 1,
                            "name": "Luke Skywalker",
                          },
                          Object {
                            "birth_year": "112BBY",
                            "id": 2,
                            "name": "C-3PO",
                          },
                          Object {
                            "birth_year": "33BBY",
                            "id": 3,
                            "name": "R2-D2",
                          },
                          Object {
                            "birth_year": "41.9BBY",
                            "id": 4,
                            "name": "Darth Vader",
                          },
                          Object {
                            "birth_year": "19BBY",
                            "id": 5,
                            "name": "Leia Organa",
                          },
                        ]
                      }
                      getItem={[Function]}
                      getItemCount={[Function]}
                      keyExtractor={[Function]}
                      onContentSizeChange={[Function]}
                      onLayout={[Function]}
                      onMomentumScrollBegin={[Function]}
                      onMomentumScrollEnd={[Function]}
                      onScroll={[Function]}
                      onScrollBeginDrag={[Function]}
                      onScrollEndDrag={[Function]}
                      removeClippedSubviews={false}
                      renderItem={[Function]}
                      scrollEventThrottle={50}
                      stickyHeaderIndices={Array []}
                      viewabilityConfigCallbackPairs={Array []}
                    >
                      <View>
                        <View
                          onLayout={[Function]}
                          style={null}
                        >
                          <View
                            accessible={true}
                            collapsable={false}
                            focusable={true}
                            onClick={[Function]}
                            onResponderGrant={[Function]}
                            onResponderMove={[Function]}
                            onResponderRelease={[Function]}
                            onResponderTerminate={[Function]}
                            onResponderTerminationRequest={[Function]}
                            onStartShouldSetResponder={[Function]}
                            style={
                              Object {
                                "opacity": 1,
                              }
                            }
                          >
                            <View>
                              <Text
                                style={
                                  Object {
                                    "fontSize": 18,
                                    "paddingHorizontal": 12,
                                    "paddingVertical": 12,
                                  }
                                }
                              >
                                Luke Skywalker
                              </Text>
                              <View
                                style={
                                  Object {
                                    "borderColor": "#ccc",
                                    "borderWidth": 0.5,
                                  }
                                }
                              />
                            </View>
                          </View>
                        </View>
                        <View
                          onLayout={[Function]}
                          style={null}
                        >
                          <View
                            accessible={true}
                            collapsable={false}
                            focusable={true}
                            onClick={[Function]}
                            onResponderGrant={[Function]}
                            onResponderMove={[Function]}
                            onResponderRelease={[Function]}
                            onResponderTerminate={[Function]}
                            onResponderTerminationRequest={[Function]}
                            onStartShouldSetResponder={[Function]}
                            style={
                              Object {
                                "opacity": 1,
                              }
                            }
                          >
                            <View>
                              <Text
                                style={
                                  Object {
                                    "fontSize": 18,
                                    "paddingHorizontal": 12,
                                    "paddingVertical": 12,
                                  }
                                }
                              >
                                C-3PO
                              </Text>
                              <View
                                style={
                                  Object {
                                    "borderColor": "#ccc",
                                    "borderWidth": 0.5,
                                  }
                                }
                              />
                            </View>
                          </View>
                        </View>
                        <View
                          onLayout={[Function]}
                          style={null}
                        >
                          <View
                            accessible={true}
                            collapsable={false}
                            focusable={true}
                            onClick={[Function]}
                            onResponderGrant={[Function]}
                            onResponderMove={[Function]}
                            onResponderRelease={[Function]}
                            onResponderTerminate={[Function]}
                            onResponderTerminationRequest={[Function]}
                            onStartShouldSetResponder={[Function]}
                            style={
                              Object {
                                "opacity": 1,
                              }
                            }
                          >
                            <View>
                              <Text
                                style={
                                  Object {
                                    "fontSize": 18,
                                    "paddingHorizontal": 12,
                                    "paddingVertical": 12,
                                  }
                                }
                              >
                                R2-D2
                              </Text>
                              <View
                                style={
                                  Object {
                                    "borderColor": "#ccc",
                                    "borderWidth": 0.5,
                                  }
                                }
                              />
                            </View>
                          </View>
                        </View>
                        <View
                          onLayout={[Function]}
                          style={null}
                        >
                          <View
                            accessible={true}
                            collapsable={false}
                            focusable={true}
                            onClick={[Function]}
                            onResponderGrant={[Function]}
                            onResponderMove={[Function]}
                            onResponderRelease={[Function]}
                            onResponderTerminate={[Function]}
                            onResponderTerminationRequest={[Function]}
                            onStartShouldSetResponder={[Function]}
                            style={
                              Object {
                                "opacity": 1,
                              }
                            }
                          >
                            <View>
                              <Text
                                style={
                                  Object {
                                    "fontSize": 18,
                                    "paddingHorizontal": 12,
                                    "paddingVertical": 12,
                                  }
                                }
                              >
                                Darth Vader
                              </Text>
                              <View
                                style={
                                  Object {
                                    "borderColor": "#ccc",
                                    "borderWidth": 0.5,
                                  }
                                }
                              />
                            </View>
                          </View>
                        </View>
                        <View
                          onLayout={[Function]}
                          style={null}
                        >
                          <View
                            accessible={true}
                            collapsable={false}
                            focusable={true}
                            onClick={[Function]}
                            onResponderGrant={[Function]}
                            onResponderMove={[Function]}
                            onResponderRelease={[Function]}
                            onResponderTerminate={[Function]}
                            onResponderTerminationRequest={[Function]}
                            onStartShouldSetResponder={[Function]}
                            style={
                              Object {
                                "opacity": 1,
                              }
                            }
                          >
                            <View>
                              <Text
                                style={
                                  Object {
                                    "fontSize": 18,
                                    "paddingHorizontal": 12,
                                    "paddingVertical": 12,
                                  }
                                }
                              >
                                Leia Organa
                              </Text>
                              <View
                                style={
                                  Object {
                                    "borderColor": "#ccc",
                                    "borderWidth": 0.5,
                                  }
                                }
                              />
                            </View>
                          </View>
                        </View>
                      </View>
                    </RCTScrollView>
                  </View>
                </View>
              </RNSScreen>
            </RNSScreenStack>
          </View>
        </View>
      </View>
    </RNSScreen>
  </RNSScreenNavigationContainer>
  <View
    collapsable={false}
    onLayout={[Function]}
    pointerEvents="auto"
    style={
      Object {
        "backgroundColor": "rgb(255, 255, 255)",
        "borderTopColor": "rgb(216, 216, 216)",
        "borderTopWidth": 0.5,
        "bottom": 0,
        "elevation": 8,
        "height": 49,
        "left": 0,
        "paddingBottom": 0,
        "paddingHorizontal": 0,
        "position": null,
        "right": 0,
        "transform": Array [
          Object {
            "translateY": 0,
          },
        ],
      }
    }
  >
    <View
      pointerEvents="none"
      style={
        Object {
          "bottom": 0,
          "left": 0,
          "position": "absolute",
          "right": 0,
          "top": 0,
        }
      }
    />
    <View
      accessibilityRole="tablist"
      style={
        Object {
          "flex": 1,
          "flexDirection": "row",
        }
      }
    >
      <View
        accessibilityLabel="Discover, tab, 1 of 4"
        accessibilityRole="button"
        accessibilityState={
          Object {
            "selected": true,
          }
        }
        accessibilityStates={
          Array [
            "selected",
          ]
        }
        accessible={true}
        collapsable={false}
        focusable={true}
        onBlur={[Function]}
        onClick={[Function]}
        onFocus={[Function]}
        onResponderGrant={[Function]}
        onResponderMove={[Function]}
        onResponderRelease={[Function]}
        onResponderTerminate={[Function]}
        onResponderTerminationRequest={[Function]}
        onStartShouldSetResponder={[Function]}
        style={
          Array [
            Object {
              "alignItems": "center",
              "flex": 1,
            },
            Object {
              "backgroundColor": "transparent",
            },
            Object {
              "flexDirection": "column",
              "justifyContent": "flex-end",
            },
            undefined,
          ]
        }
      >
        <View
          style={
            Array [
              Object {
                "flex": 1,
              },
              undefined,
            ]
          }
        >
          <View
            style={
              Array [
                Object {
                  "alignItems": "center",
                  "alignSelf": "center",
                  "height": "100%",
                  "justifyContent": "center",
                  "minWidth": 25,
                  "position": "absolute",
                  "width": "100%",
                },
                Object {
                  "opacity": 1,
                },
              ]
            }
          >
            <Text
              style={
                Array [
                  Object {
                    "backgroundColor": "transparent",
                  },
                  Object {
                    "color": "rgb(0, 122, 255)",
                    "fontSize": 25,
                  },
                  undefined,
                ]
              }
            >
              ⏷
            </Text>
          </View>
          <View
            style={
              Array [
                Object {
                  "alignItems": "center",
                  "alignSelf": "center",
                  "height": "100%",
                  "justifyContent": "center",
                  "minWidth": 25,
                  "position": "absolute",
                  "width": "100%",
                },
                Object {
                  "opacity": 0,
                },
              ]
            }
          >
            <Text
              style={
                Array [
                  Object {
                    "backgroundColor": "transparent",
                  },
                  Object {
                    "color": "#8E8E8F",
                    "fontSize": 25,
                  },
                  undefined,
                ]
              }
            >
              ⏷
            </Text>
          </View>
        </View>
        <Text
          numberOfLines={1}
          style={
            Array [
              Object {
                "backgroundColor": "transparent",
                "textAlign": "center",
              },
              Object {
                "color": "rgb(0, 122, 255)",
              },
              Object {
                "fontSize": 10,
              },
              undefined,
            ]
          }
        >
          Discover
        </Text>
      </View>
      <View
        accessibilityLabel="Shop, tab, 2 of 4"
        accessibilityRole="button"
        accessibilityState={
          Object {
            "selected": false,
          }
        }
        accessibilityStates={Array []}
        accessible={true}
        collapsable={false}
        focusable={true}
        onBlur={[Function]}
        onClick={[Function]}
        onFocus={[Function]}
        onResponderGrant={[Function]}
        onResponderMove={[Function]}
        onResponderRelease={[Function]}
        onResponderTerminate={[Function]}
        onResponderTerminationRequest={[Function]}
        onStartShouldSetResponder={[Function]}
        style={
          Array [
            Object {
              "alignItems": "center",
              "flex": 1,
            },
            Object {
              "backgroundColor": "transparent",
            },
            Object {
              "flexDirection": "column",
              "justifyContent": "flex-end",
            },
            undefined,
          ]
        }
      >
        <View
          style={
            Array [
              Object {
                "flex": 1,
              },
              undefined,
            ]
          }
        >
          <View
            style={
              Array [
                Object {
                  "alignItems": "center",
                  "alignSelf": "center",
                  "height": "100%",
                  "justifyContent": "center",
                  "minWidth": 25,
                  "position": "absolute",
                  "width": "100%",
                },
                Object {
                  "opacity": 0,
                },
              ]
            }
          >
            <Text
              style={
                Array [
                  Object {
                    "backgroundColor": "transparent",
                  },
                  Object {
                    "color": "rgb(0, 122, 255)",
                    "fontSize": 25,
                  },
                  undefined,
                ]
              }
            >
              ⏷
            </Text>
          </View>
          <View
            style={
              Array [
                Object {
                  "alignItems": "center",
                  "alignSelf": "center",
                  "height": "100%",
                  "justifyContent": "center",
                  "minWidth": 25,
                  "position": "absolute",
                  "width": "100%",
                },
                Object {
                  "opacity": 1,
                },
              ]
            }
          >
            <Text
              style={
                Array [
                  Object {
                    "backgroundColor": "transparent",
                  },
                  Object {
                    "color": "#8E8E8F",
                    "fontSize": 25,
                  },
                  undefined,
                ]
              }
            >
              ⏷
            </Text>
          </View>
        </View>
        <Text
          numberOfLines={1}
          style={
            Array [
              Object {
                "backgroundColor": "transparent",
                "textAlign": "center",
              },
              Object {
                "color": "#8E8E8F",
              },
              Object {
                "fontSize": 10,
              },
              undefined,
            ]
          }
        >
          Shop
        </Text>
      </View>
      <View
        accessibilityLabel="Bag, tab, 3 of 4"
        accessibilityRole="button"
        accessibilityState={
          Object {
            "selected": false,
          }
        }
        accessibilityStates={Array []}
        accessible={true}
        collapsable={false}
        focusable={true}
        onBlur={[Function]}
        onClick={[Function]}
        onFocus={[Function]}
        onResponderGrant={[Function]}
        onResponderMove={[Function]}
        onResponderRelease={[Function]}
        onResponderTerminate={[Function]}
        onResponderTerminationRequest={[Function]}
        onStartShouldSetResponder={[Function]}
        style={
          Array [
            Object {
              "alignItems": "center",
              "flex": 1,
            },
            Object {
              "backgroundColor": "transparent",
            },
            Object {
              "flexDirection": "column",
              "justifyContent": "flex-end",
            },
            undefined,
          ]
        }
      >
        <View
          style={
            Array [
              Object {
                "flex": 1,
              },
              undefined,
            ]
          }
        >
          <View
            style={
              Array [
                Object {
                  "alignItems": "center",
                  "alignSelf": "center",
                  "height": "100%",
                  "justifyContent": "center",
                  "minWidth": 25,
                  "position": "absolute",
                  "width": "100%",
                },
                Object {
                  "opacity": 0,
                },
              ]
            }
          >
            <Text
              style={
                Array [
                  Object {
                    "backgroundColor": "transparent",
                  },
                  Object {
                    "color": "rgb(0, 122, 255)",
                    "fontSize": 25,
                  },
                  undefined,
                ]
              }
            >
              ⏷
            </Text>
          </View>
          <View
            style={
              Array [
                Object {
                  "alignItems": "center",
                  "alignSelf": "center",
                  "height": "100%",
                  "justifyContent": "center",
                  "minWidth": 25,
                  "position": "absolute",
                  "width": "100%",
                },
                Object {
                  "opacity": 1,
                },
              ]
            }
          >
            <Text
              style={
                Array [
                  Object {
                    "backgroundColor": "transparent",
                  },
                  Object {
                    "color": "#8E8E8F",
                    "fontSize": 25,
                  },
                  undefined,
                ]
              }
            >
              ⏷
            </Text>
          </View>
        </View>
        <Text
          numberOfLines={1}
          style={
            Array [
              Object {
                "backgroundColor": "transparent",
                "textAlign": "center",
              },
              Object {
                "color": "#8E8E8F",
              },
              Object {
                "fontSize": 10,
              },
              undefined,
            ]
          }
        >
          Bag
        </Text>
      </View>
      <View
        accessibilityLabel="MyAccount, tab, 4 of 4"
        accessibilityRole="button"
        accessibilityState={
          Object {
            "selected": false,
          }
        }
        accessibilityStates={Array []}
        accessible={true}
        collapsable={false}
        focusable={true}
        onBlur={[Function]}
        onClick={[Function]}
        onFocus={[Function]}
        onResponderGrant={[Function]}
        onResponderMove={[Function]}
        onResponderRelease={[Function]}
        onResponderTerminate={[Function]}
        onResponderTerminationRequest={[Function]}
        onStartShouldSetResponder={[Function]}
        style={
          Array [
            Object {
              "alignItems": "center",
              "flex": 1,
            },
            Object {
              "backgroundColor": "transparent",
            },
            Object {
              "flexDirection": "column",
              "justifyContent": "flex-end",
            },
            undefined,
          ]
        }
      >
        <View
          style={
            Array [
              Object {
                "flex": 1,
              },
              undefined,
            ]
          }
        >
          <View
            style={
              Array [
                Object {
                  "alignItems": "center",
                  "alignSelf": "center",
                  "height": "100%",
                  "justifyContent": "center",
                  "minWidth": 25,
                  "position": "absolute",
                  "width": "100%",
                },
                Object {
                  "opacity": 0,
                },
              ]
            }
          >
            <Text
              style={
                Array [
                  Object {
                    "backgroundColor": "transparent",
                  },
                  Object {
                    "color": "rgb(0, 122, 255)",
                    "fontSize": 25,
                  },
                  undefined,
                ]
              }
            >
              ⏷
            </Text>
          </View>
          <View
            style={
              Array [
                Object {
                  "alignItems": "center",
                  "alignSelf": "center",
                  "height": "100%",
                  "justifyContent": "center",
                  "minWidth": 25,
                  "position": "absolute",
                  "width": "100%",
                },
                Object {
                  "opacity": 1,
                },
              ]
            }
          >
            <Text
              style={
                Array [
                  Object {
                    "backgroundColor": "transparent",
                  },
                  Object {
                    "color": "#8E8E8F",
                    "fontSize": 25,
                  },
                  undefined,
                ]
              }
            >
              ⏷
            </Text>
          </View>
        </View>
        <Text
          numberOfLines={1}
          style={
            Array [
              Object {
                "backgroundColor": "transparent",
                "textAlign": "center",
              },
              Object {
                "color": "#8E8E8F",
              },
              Object {
                "fontSize": 10,
              },
              undefined,
            ]
          }
        >
          MyAccount
        </Text>
      </View>
    </View>
  </View>
</RNCSafeAreaProvider>
`;
